Name,Age,Sex,Division,BodyweightKg,WeightClassKg,Event,Equipment,Squat1Kg,Squat2Kg,Squat3Kg,Squat4Kg,Best3SquatKg,Bench1Kg,Bench2Kg,Bench3Kg,Bench4Kg,Best3BenchKg,Deadlift1Kg,Deadlift2Kg,Deadlift3Kg,Best3DeadliftKg,TotalKg,Place
Dawn Hickman,43,F,O,45,48,SBD,Multi-ply,102.5,117.5,125,,125,67.5,70,75,,75,107.5,117.5,122.5,122.5,322.5,1
Liz Nesuda,41,F,O,58.1,60,SBD,Multi-ply,-137.5,137.5,-145,,137.5,92.5,97.5,,,97.5,125,137.5,147.5,147.5,382.5,1
Debbie Damminga,49,F,O,67.5,67.5,SBD,Multi-ply,187.5,202.5,211,,211,100,111,115,,115,182.5,195,202.5,202.5,528.5,1
Trish Martin,43,F,O,72.8,75,SBD,Multi-ply,-185,-185,185,,185,102.5,107.5,115,,115,165,175,185,185,485,1
Stephanie van de Weghe,49,F,O,77.31,82.5,SBD,Multi-ply,260,-285,-285,,260,-165,170,185,,185,192.5,210,-227.5,210,655,1
Krista Ford,44,F,O,81.7,82.5,SBD,Multi-ply,240,267.5,277.5,285,277.5,107.5,115,117.5,,117.5,195,202.5,-227.5,202.5,597.5,2
Rebecca Gorshe,33,F,O,86.7,90,SBD,Multi-ply,-237.5,237.5,-255,,237.5,165,176,185,,185,210,222.5,-232.5,222.5,645,1
Marc Tejero,33,M,O,67.5,67.5,SBD,Multi-ply,282.5,297.5,312.5,,312.5,182.5,-195,-195,,182.5,232.5,250,-260,250,745,1
Lupe Coronado,50,M,O,74.58,75,SBD,Multi-ply,-227.5,227.5,247.5,,247.5,167.5,177.5,-185,,177.5,212.5,-232.5,-232.5,212.5,637.5,1
Louis Ruiz Jr,33,M,O,81.75,82.5,SBD,Multi-ply,217.5,230,245,,245,117.5,152.5,165,,165,172.5,192.5,197.5,197.5,607.5,1
Ervin Domanski,39,M,O,82.3,82.5,SBD,Multi-ply,-300,-320,-320,,,,,,,,,,,,,DQ
Jeff Adkins,29,M,O,88.65,90,SBD,Multi-ply,330,342.5,352.5,,352.5,255,272.5,277.5,,277.5,280,-297.5,300,300,930,1
Scott Kuderick,37,M,O,86.13,90,SBD,Multi-ply,327.5,340,-352.5,,340,200,210,,,210,230,-255,-255,230,780,2
Bama Hibbing,42,M,O,85.6,90,SBD,Multi-ply,275,-320,-320,,275,160,,,,160,230,250,-255,250,685,3
Rachel Nutter,40,F,O,136.2,90+,B,Multi-ply,,,,,,185,-200,200,,200,,,,,200,1
Rebecca Gorche,33,F,O,86.7,90,B,Multi-ply,,,,,,165,176,185,,185,,,,,185,1
Nick Marinis,48,M,O,82,82.5,B,Multi-ply,,,,,,-252.5,-252.5,-272.5,,,,,,,,DQ
Tracy Frein,52,M,O,90.1,100,B,Multi-ply,,,,,,-192.5,-192.5,-192.5,,,,,,,,DQ
Cody Stanley,32,M,O,97.43,100,SBD,Multi-ply,330,345,355,,355,137.5,280,-287.5,,280,275,295,,295,930,1
Paul Balyeat,31,M,O,99.4,100,SBD,Multi-ply,-285,-295,-295,,,,,,,,,,,,,DQ
Dwayne Warren,21,M,O,108.2,110,SBD,Multi-ply,337.5,,,,337.5,245,265,272.5,,272.5,275,292.5,,292.5,902.5,1
Rick Lawrence,46,M,O,107.4,110,SBD,Multi-ply,-327.5,,,,,-255,255,-272.5,,255,,,,,,DQ
Corey Akers,36,M,O,110,110,SBD,Multi-ply,455,-480,-480,,455,-327.5,-327.5,,,,,,,,,DQ
Anthony Carlquist,32,M,O,119,125,SBD,Multi-ply,432.5,455,465,,465,320,-335,335,,335,327.5,342.5,-350,342.5,1142.5,1
Marshall Johnson,27,M,O,123.7,125,SBD,Multi-ply,432.5,457.5,470,,470,262.5,282.5,295,,295,342.5,365,-380,365,1130,2
Pete Arroyo,32,M,O,123.2,125,SBD,Multi-ply,385,412.5,,,412.5,297.5,305,-310,,305,265,285,-295,285,1002.5,3
Brad Saunders,47,M,O,113.5,125,SBD,Multi-ply,285,-320,320,,320,230,245,255,,255,275,282.5,-287.5,282.5,857.5,4
Gregg Damminga,49,M,O,134.9,140,SBD,Multi-ply,390,410,-422.5,,410,245,-257.5,,,245,290,305,-320,305,960,1
Greg Theriot,27,M,O,133.2,140,SBD,Multi-ply,-457.5,-457.5,-457.5,,,,,,,,,,,,,DQ
Barzeen Vaziri,26,M,O,148.8,140+,SBD,Multi-ply,417.5,-455,-455,,417.5,-137.5,295,,,295,227.5,295,,295,1007.5,1
Adam Hinton,28,M,O,163.1,140+,SBD,Multi-ply,327.5,352.5,372.5,,372.5,217.5,227.5,,,227.5,337.5,-365,,337.5,937.5,2
John Ewing,30,M,O,156.1,140+,SBD,Multi-ply,-477.5,-477.5,-477.5,,,332.5,355,-365,,355,,,,,,DQ
Scott Saluzzi,61,M,O,98.7,100,B,Multi-ply,,,,,,-215,-215,215,,215,,,,,215,1
Fred Woodson Jr,43,M,O,99.68,100,B,Multi-ply,,,,,,-260,-260,-260,,,,,,,,DQ
Stanley Tomaszkiewicz,41,M,O,109,110,B,Multi-ply,,,,,,-315,-322.5,330,,330,,,,,330,1
Tom Pernu,50,M,O,109.7,110,B,Multi-ply,,,,,,265,277.5,-285,,277.5,,,,,277.5,2
Ray Howell Sr,57,M,O,107.6,110,B,Multi-ply,,,,,,-182.5,-182.5,-182.5,,,,,,,,DQ
Bruce McCord,50,M,O,120.8,125,B,Multi-ply,,,,,,237.5,-250,-250,,237.5,,,,,237.5,1
Angelo Giannosa,27,M,O,112.5,125,B,Multi-ply,,,,,,187.5,-207.5,-207.5,,187.5,,,,,187.5,2
Jerry Foltz,46,M,O,129.5,140,B,Multi-ply,,,,,,242.5,257.5,-267.5,,257.5,,,,,257.5,1
Richard Rutherford,46,M,O,131.7,140,B,Multi-ply,,,,,,207.5,215,-227.5,,215,,,,,215,2
Curtis Radke,39,M,O,132.9,140,B,Multi-ply,,,,,,200,215,-227.5,,215,,,,,215,3
Tom Nelson,62,M,O,133.7,140,B,Multi-ply,,,,,,,,,,,,,,,,DQ
John Ewing,30,M,O,156.1,140+,B,Multi-ply,,,,,,332.5,355,-365,,355,,,,,355,1
Rick Lawrence,46,M,O,107.4,110,B,Multi-ply,,,,,,-255,255,-272.5,,255,,,,,255,1
