Division,WeightClassKg,Place,Name,Team,BodyweightKg,Best3SquatKg,Best3BenchKg,Best3DeadliftKg,TotalKg,Equipment,Event,Sex
Girls,44.23,1,Alyssa Mathews,White Oak,43.91,86.18,52.16,111.13,249.48,Single-ply,SBD,F
Girls,44.23,2,Kinsey Persons,Teague,44,92.99,45.36,90.72,229.06,Single-ply,SBD,F
Girls,44.23,3,Katelynn Clark,Celeste,42.64,88.45,36.29,102.06,226.8,Single-ply,SBD,F
Girls,44.23,4,Audrey Gonzalez,Ore City,42.73,92.99,36.29,88.45,217.72,Single-ply,SBD,F
Girls,44.23,5,Jailene Williams,Blooming Grove,40.19,79.38,38.56,81.65,199.58,Single-ply,SBD,F
Girls,44.23,6,Melissa Roach,Corsicana Mildred,40.19,61.23,29.48,83.91,174.63,Single-ply,SBD,F
Girls,44.23,7,Amanda Brown,Elkhart,42.64,63.5,38.56,68.04,170.1,Single-ply,SBD,F
Girls,44.23,8,Harley Mingus,Cayuga,42.82,63.5,22.68,74.84,161.03,Single-ply,SBD,F
Girls,44.23,9,Kesea Ables,Red Oak Life,43,56.7,31.75,72.57,161.03,Single-ply,SBD,F
Girls,44.23,DQ,Tara Wallis,Italy,44,,,,,Single-ply,SBD,F
Girls,44.23,DQ,Sarah Farley,Kemp,43.09,,,,,Single-ply,SBD,F
Girls,47.85,1,Chloe Brown,Joaquin,47.17,117.93,52.16,136.08,306.17,Single-ply,SBD,F
Girls,47.85,2,Desiree Wiggins,Blooming Grove,47.81,108.86,61.23,120.2,290.3,Single-ply,SBD,F
Girls,47.85,3,Kayla Hale,Kemp,46.99,117.93,52.16,115.67,285.76,Single-ply,SBD,F
Girls,47.85,4,Michaela Orr,Winnsboro,47.08,115.67,45.36,117.93,278.96,Single-ply,SBD,F
Girls,47.85,5,Jodi Hoelscher,Big Sandy Harmony,47.81,97.52,49.9,95.25,242.67,Single-ply,SBD,F
Girls,47.85,6,Kailah Badall,Jewett Leon,47.08,92.99,38.56,99.79,231.33,Single-ply,SBD,F
Girls,47.85,7,Carson Black,Teague,46.45,88.45,36.29,95.25,219.99,Single-ply,SBD,F
Girls,47.85,8,Tori Bowden,Palestine Westwood,47.63,79.38,34.02,102.06,215.46,Single-ply,SBD,F
Girls,47.85,9,Angelica Zepeda,Red Oak Life,47.72,86.18,34.02,92.99,213.19,Single-ply,SBD,F
Girls,47.85,DQ,Kassady Todd Hunter,Commerce,47.85,,,,,Single-ply,SBD,F
Girls,51.94,1,Chick Johnson,New Boston,49.53,129.27,56.7,124.74,310.71,Single-ply,SBD,F
Girls,51.94,2,Sara Bouldin,Normangee,51.35,99.79,47.63,120.2,267.62,Single-ply,SBD,F
Girls,51.94,3,Sierra Patterson,Commerce,50.8,111.13,47.63,104.33,263.08,Single-ply,SBD,F
Girls,51.94,4,Dezie Dowd,Kemp,51.89,97.52,52.16,104.33,254.01,Single-ply,SBD,F
Girls,51.94,5,Telsa Mowary,Winnsboro,50.53,92.99,40.82,106.59,240.4,Single-ply,SBD,F
Girls,51.94,6,Halie Holley,Winnsboro,51.53,97.52,40.82,102.06,240.4,Single-ply,SBD,F
Girls,51.94,7,Madison Minter,Celeste,51.53,95.25,49.9,92.99,238.14,Single-ply,SBD,F
Girls,51.94,8,Shayla Roddey,Normangee,50.89,81.65,43.09,108.86,233.6,Single-ply,SBD,F
Girls,51.94,9,Samantha Crocker,Eustace,50.35,95.25,34.02,99.79,229.06,Single-ply,SBD,F
Girls,51.94,10,Morgan Hill,White Oak,51.35,81.65,40.82,104.33,226.8,Single-ply,SBD,F
Girls,51.94,DQ,Courtney Etheridge,Overton,50.98,,,,,Single-ply,SBD,F
Girls,56.02,1,Kenzie Martin,Winnsboro,55.97,113.4,65.77,120.2,299.37,Single-ply,SBD,F
Girls,56.02,2,Kalee Anderson,Kemp,55.43,129.27,52.16,113.4,294.84,Single-ply,SBD,F
Girls,56.02,3,Amber Mills,Elkhart,55.97,108.86,52.16,120.2,281.23,Single-ply,SBD,F
Girls,56.02,4,Aubyn Turner,Corsicana Mildred,54.88,99.79,54.43,111.13,265.35,Single-ply,SBD,F
Girls,56.02,5,Kayla Phillips,Overton,52.62,113.4,43.09,102.06,258.55,Single-ply,SBD,F
Girls,56.02,6,Caitlyn Grubbs,Blooming Grove,55.07,102.06,47.63,108.86,258.55,Single-ply,SBD,F
Girls,56.02,7,Kelsey Gage,Kemp,55.7,92.99,45.36,120.2,258.55,Single-ply,SBD,F
Girls,56.02,8,Laura Stidham,Gladewater Sabine,54.07,97.52,43.09,113.4,254.01,Single-ply,SBD,F
Girls,56.02,9,Madison Thomas,Cumby,55.88,95.25,49.9,104.33,249.48,Single-ply,SBD,F
Girls,56.02,10,Elizabeth Perales,Teague,55.88,95.25,45.36,106.59,247.21,Single-ply,SBD,F
Girls,56.02,11,Sydney Tharpe,Winnsboro,53.71,97.52,40.82,106.59,244.94,Single-ply,SBD,F
Girls,56.02,12,Celeste Bennet,Paris Chisum,56.02,104.33,,,104.33,Single-ply,S,F
Girls,56.02,13,Lyndsey Anton,Hughes Springs,54.79,99.79,,,99.79,Single-ply,S,F
Girls,60.1,1,Chablis Barber,Daingerfield,59.96,124.74,56.7,147.42,328.85,Single-ply,SBD,F
Girls,60.1,2,Alexis Spruell,Commerce,58.88,136.08,47.63,138.35,322.05,Single-ply,SBD,F
Girls,60.1,3,Chassity Chambless,Elkhart,58.69,133.81,52.16,129.27,315.25,Single-ply,SBD,F
Girls,60.1,4,Ashley Bush,Redwater,59.96,124.74,47.63,142.88,315.25,Single-ply,SBD,F
Girls,60.1,5,Skyler Rodgers,Elkhart,60.06,122.47,52.16,124.74,299.37,Single-ply,SBD,F
Girls,60.1,6,Alaydrian Barnett,Red Oak Life,58.69,129.27,49.9,115.67,294.84,Single-ply,SBD,F
Girls,60.1,7,Anne Rouleau,Celeste,58.06,111.13,52.16,124.74,288.03,Single-ply,SBD,F
Girls,60.1,8,Alyssa Carr,Maud,59.6,113.4,49.9,122.47,285.76,Single-ply,SBD,F
Girls,60.1,9,Savannah Talbert,Shelbyville,59.15,122.47,45.36,115.67,283.5,Single-ply,SBD,F
Girls,60.1,10,Kinsey Rogers,Kemp,59.96,117.93,56.7,106.59,281.23,Single-ply,SBD,F
Girls,67.36,1,Ashley Brown,Mount Vernon,66.13,170.1,61.23,147.42,378.75,Single-ply,SBD,F
Girls,67.36,2,Meghan Bowling,White Oak,66.13,147.42,77.11,140.61,365.14,Single-ply,SBD,F
Girls,67.36,3,Abigail Ramirez,Winnsboro,66.59,147.42,65.77,151.95,365.14,Single-ply,SBD,F
Girls,67.36,4,Brianna Pavatt,Kemp,62.6,140.61,54.43,145.15,340.19,Single-ply,SBD,F
Girls,67.36,5,Kirby Cooper,Teague,66.41,131.54,52.16,154.22,337.93,Single-ply,SBD,F
Girls,67.36,6,Lana Ledford,Troup,65.95,131.54,54.43,147.42,333.39,Single-ply,SBD,F
Girls,67.36,7,Gabriella Aguilar,Cumby,64.32,127.01,63.5,133.81,324.32,Single-ply,SBD,F
Girls,67.36,8,Cristina Gutierrez,Hawkins,65.05,124.74,52.16,147.42,324.32,Single-ply,SBD,F
Girls,67.36,9,Lauren Ummel,White Oak,63.41,136.08,56.7,127.01,319.78,Single-ply,SBD,F
Girls,67.36,10,Dewayna Johnson,New London West Rusk,62.6,138.35,56.7,120.2,315.25,Single-ply,SBD,F
Girls,75.07,1,Asaya'na Jackson,Corsicana Mildred,67.59,151.95,63.5,165.56,381.02,Single-ply,SBD,F
Girls,75.07,2,TaChrissa Boyd,Daingerfield,68.31,163.29,70.31,147.42,381.02,Single-ply,SBD,F
Girls,75.07,3,Brittany Daniels,Commerce,71.21,151.95,54.43,147.42,353.8,Single-ply,SBD,F
Girls,75.07,4,Brianna Cummings,Maud,72.85,154.22,65.77,127.01,347,Single-ply,SBD,F
Girls,75.07,5,Carmen Soto,White Oak,73.57,142.88,54.43,140.61,337.93,Single-ply,SBD,F
Girls,75.07,6,Tiffany Shipman,Winnsboro,74.03,129.27,65.77,120.2,315.25,Single-ply,SBD,F
Girls,75.07,7,Brianna Garcia,Ore City,70.85,111.13,56.7,124.74,292.57,Single-ply,SBD,F
Girls,75.07,DQ,Jessica Broome,Overton,71.4,,,,,Single-ply,SBD,F
Girls,75.07,DQ,Candace Denis,Malakoff,72.48,,,,,Single-ply,SBD,F
Girls,82.33,1,Deondra Dowell,Malakoff,80.56,138.35,68.04,147.42,353.8,Single-ply,SBD,F
Girls,82.33,2,Harlie Hagler,Shelbyville,77.93,161.03,65.77,124.74,351.53,Single-ply,SBD,F
Girls,82.33,3,Bailey Braddock,Cumby,75.3,161.03,56.7,129.27,347,Single-ply,SBD,F
Girls,82.33,4,Vanessa McNiel,Blooming Grove,76.66,136.08,49.9,142.88,328.85,Single-ply,SBD,F
Girls,82.33,5,Jaz Athins,Joaquin,79.02,127.01,58.97,124.74,310.71,Single-ply,SBD,F
Girls,82.33,6,Samantha Clements,Queen City,77.38,122.47,54.43,129.27,306.17,Single-ply,SBD,F
Girls,82.33,7,Sierra Rector,Celeste,82.28,120.2,70.31,104.33,294.84,Single-ply,SBD,F
Girls,82.33,8,Beth Peterson,White Oak,78.11,117.93,49.9,124.74,292.57,Single-ply,SBD,F
Girls,82.33,9,Jana Walthall,Cayuga,78.2,117.93,56.7,117.93,292.57,Single-ply,SBD,F
Girls,82.33,10,Meagan Langdon,Redwater,77.56,106.59,56.7,104.33,267.62,Single-ply,SBD,F
Girls,82.33,12,Cynthia Velez,Winnsboro,78.02,113.4,,,113.4,Single-ply,S,F
Girls,82.33,DQ,Shametriece Black,Daingerfield,81.83,,,,,Single-ply,SBD,F
Girls,90.04,1,Andrianna Hill,Daingerfield,84.01,127.01,58.97,158.76,344.73,Single-ply,SBD,F
Girls,90.04,2,Aimee Rodriguez,White Oak,84.1,142.88,61.23,140.61,344.73,Single-ply,SBD,F
Girls,90.04,3,Shaina Stotts,Cayuga,87.91,149.69,54.43,140.61,344.73,Single-ply,SBD,F
Girls,90.04,4,Hannah Lipsey,Celeste,85.18,133.81,77.11,117.93,328.85,Single-ply,SBD,F
Girls,90.04,5,Breigh-Ann True,Overton,88.18,145.15,56.7,127.01,328.85,Single-ply,SBD,F
Girls,90.04,6,Morgan Seals,Celeste,89.09,120.2,70.31,133.81,324.32,Single-ply,SBD,F
Girls,90.04,7,Daniela Gayton,Caddo Mills,86.82,136.08,52.16,133.81,322.05,Single-ply,SBD,F
Girls,90.04,8,Tristan Gotreaux,Normangee,86.82,115.67,54.43,127.01,297.1,Single-ply,SBD,F
Girls,90.04,9,Miranda Bates,Detroit,88.18,120.2,45.36,129.27,294.84,Single-ply,SBD,F
Girls,90.04,10,Breezy Campbell,Redwater,83.1,120.2,54.43,113.4,288.03,Single-ply,SBD,F
Girls,90.04,11,Gladis Ramirez,Winnsboro,82.37,161.03,65.77,,226.8,Single-ply,SB,F
Girls,90.04,DQ,Hannah Teuhs,Normangee,83.37,,,,,Single-ply,SBD,F
Girls,90.04,DQ,Jessica Miller,Eustace,84.01,,,,,Single-ply,SBD,F
Girls,100.02,1,Kristin Dean,Troup,98.43,188.24,102.06,147.42,437.72,Single-ply,SBD,F
Girls,100.02,2,Hannah Hall,Kerens,98.07,161.03,72.57,158.76,392.36,Single-ply,SBD,F
Girls,100.02,3,Sunni Goodell,Eustace,99.43,174.63,77.11,138.35,390.09,Single-ply,SBD,F
Girls,100.02,4,Cydney Crawford,New Boston,97.89,165.56,72.57,142.88,381.02,Single-ply,SBD,F
Girls,100.02,5,Ty'eesha Dawkins,Palestine Westwood,99.06,163.29,63.5,145.15,371.95,Single-ply,SBD,F
Girls,100.02,6,Alexis Tackett,Paris Chisum,99.06,154.22,74.84,145.15,374.21,Single-ply,SBD,F
Girls,100.02,7,Paige Henderson,Quitman,97.61,147.42,63.5,147.42,358.34,Single-ply,SBD,F
Girls,100.02,8,Kelsey Reynolds,Malakoff,97.52,131.54,65.77,131.54,328.85,Single-ply,SBD,F
Girls,100.02,9,Teryn Saunders,Redwater,98.97,136.08,58.97,124.74,319.78,Single-ply,SBD,F
Girls,100.02,DQ,Joyce Ramirez,Blooming Grove,99.06,,,,,Single-ply,SBD,F
Girls,100.02+,1,Raven Paul,Frankston,124.74,224.53,122.47,199.58,546.58,Single-ply,SBD,F
Girls,100.02+,2,Hannah Wall,Ore City,131.09,158.76,68.04,172.37,399.16,Single-ply,SBD,F
Girls,100.02+,3,Jasmine Hunt,Elkhart,127.64,151.95,65.77,156.49,374.21,Single-ply,SBD,F
Girls,100.02+,4,Jullissa Lopez,Kemp,107.23,145.15,79.38,138.35,362.87,Single-ply,SBD,F
Girls,100.02+,5,Jessica Sanford,Shelbyville,101.42,158.76,56.7,129.27,344.73,Single-ply,SBD,F
Girls,100.02+,6,Briza Balderez,Blooming Grove,114.85,140.61,47.63,147.42,335.66,Single-ply,SBD,F
Girls,100.02+,7,Sabrina Chambliss,Celeste,100.33,124.74,74.84,133.81,333.39,Single-ply,SBD,F
Girls,100.02+,8,Kenya Ivey,Red Oak Life,112.22,131.54,61.23,140.61,333.39,Single-ply,SBD,F
Girls,100.02+,9,Chloe Coker,Caddo Mills,124.38,136.08,63.5,131.54,331.12,Single-ply,SBD,F
Girls,100.02+,10,Jasper Foster,Gladewater Sabine,100.43,108.86,52.16,136.08,297.1,Single-ply,SBD,F
Girls,100.02+,11,Alecia Odle,White Oak,106.41,104.33,,,104.33,Single-ply,S,F
