Division,WeightClassKg,Place,Name,Team,BodyweightKg,Best3SquatKg,Best3BenchKg,Best3DeadliftKg,TotalKg,Equipment,Event,Sex
Boys,51.71,1,Craig Ballew,Overton,49.62,102.06,52.16,92.99,247.21,Single-ply,SBD,M
Boys,51.71,2,Caden Gilcrease,Crandall,49.9,83.91,43.09,92.99,219.99,Single-ply,SBD,M
Boys,55.79,1,Ethan Hoops,Eustace,55.79,133.81,79.38,131.54,344.73,Single-ply,SBD,M
Boys,55.79,2,Colton Lewis,Lindale,53.43,111.13,79.38,127.01,317.51,Single-ply,SBD,M
Boys,59.87,3,Preston Davis,Lindale,56.02,90.72,70.31,138.35,299.37,Single-ply,SBD,M
Boys,55.79,4,Omar Hernandez,Athens,53.71,106.59,65.77,124.74,297.1,Single-ply,SBD,M
Boys,59.87,1,Isaiah Payne,Crandall,59.24,179.17,86.18,199.58,464.93,Single-ply,SBD,M
Boys,59.87,2,Matt Maeker,Lindale,59.15,90.72,65.77,108.86,265.35,Single-ply,SBD,M
Boys,59.87,3,Brayden Bauer,Jacksonville,57.88,92.99,63.5,92.99,249.48,Single-ply,SBD,M
Boys,67.13,1,Maliq Owens,Longview Pine Tree,65.41,151.95,79.38,167.83,399.16,Single-ply,SBD,M
Boys,74.84,2,Gustavo Arango,Mineola,67.36,149.69,83.91,147.42,381.02,Single-ply,SBD,M
Boys,67.13,3,Montana Meador,Lindale,64.41,140.61,74.84,154.22,369.68,Single-ply,SBD,M
Boys,67.13,4,Clay Hinkle,Eustace,64.59,138.35,79.38,151.95,369.68,Single-ply,SBD,M
Boys,67.13,5,Spencer Jones,Mineola,62.96,136.08,83.91,147.42,367.41,Single-ply,SBD,M
Boys,67.13,6,Caleb Gober,Van,67.13,113.4,56.7,133.81,303.91,Single-ply,SBD,M
Boys,67.13,7,Garrett Daniels,Grand Saline,63.59,113.4,68.04,113.4,294.84,Single-ply,SBD,M
Boys,74.84,1,Quentin Parks,Eustace,74.66,188.24,104.33,188.24,480.81,Single-ply,SBD,M
Boys,74.84,2,Justin Griffin,Eustace,71.94,195.04,108.86,174.63,478.54,Single-ply,SBD,M
Boys,82.1,3,Hayden Dees,Lindale,75.07,176.9,95.25,197.31,469.47,Single-ply,SBD,M
Boys,82.1,4,Dedrick Tatum,Jacksonville,75.07,181.44,97.52,188.24,467.2,Single-ply,SBD,M
Boys,74.84,5,Deverick Tatum,Jacksonville,73.57,165.56,86.18,204.12,455.86,Single-ply,SBD,M
Boys,74.84,6,Cameron Rogers,Eustace,73.03,174.63,86.18,172.37,433.18,Single-ply,SBD,M
Boys,74.84,7,Jax Tobias,Van,71.21,165.56,95.25,161.03,421.84,Single-ply,SBD,M
Boys,74.84,8,Kourtland Sinches,Mineola,72.12,170.1,92.99,158.76,421.84,Single-ply,SBD,M
Boys,74.84,9,Jacob Waggoner,Lindale,69.94,151.95,86.18,176.9,415.04,Single-ply,SBD,M
Boys,74.84,10,Fabin Roman,Quitman,68.22,149.69,92.99,165.56,408.23,Single-ply,SBD,M
Boys,74.84,11,Chris Ford,Longview Pine Tree,68.22,161.03,95.25,140.61,396.89,Single-ply,SBD,M
Boys,74.84,12,Brayden Horn,Jacksonville,73.57,142.88,81.65,167.83,392.36,Single-ply,SBD,M
Boys,74.84,13,Robert Humphreys,Lindale,72.03,117.93,65.77,204.12,387.82,Single-ply,SBD,M
Boys,74.84,14,Isiah Richardson,Longview Pine Tree,69.94,142.88,79.38,158.76,381.02,Single-ply,SBD,M
Boys,74.84,15,Kennan Lister,Longview Pine Tree,71.49,142.88,83.91,154.22,381.02,Single-ply,SBD,M
Boys,74.84,16,Scott Mitchell,Van,72.12,138.35,79.38,158.76,376.48,Single-ply,SBD,M
Boys,74.84,17,Jordan Robinson,Lindale,70.22,136.08,72.57,142.88,351.53,Single-ply,SBD,M
Boys,74.84,18,Nic Poppenhusen,Quitman,74.3,113.4,81.65,140.61,335.66,Single-ply,SBD,M
Boys,74.84,DQ,Josh Lemus,Van,73.48,244.94,,,,Single-ply,SBD,M
Boys,82.1,1,Tavion Hall,Kerens,82.1,247.21,145.15,240.4,632.76,Single-ply,SBD,M
Boys,82.1,2,Michael Hansen,Lindale,78.02,213.19,127.01,213.19,553.38,Single-ply,SBD,M
Boys,82.1,3,Ryan Taylor,Lindale,76.38,208.65,117.93,204.12,530.7,Single-ply,SBD,M
Boys,82.1,4,Temoc Berry,Van,81.19,181.44,138.35,208.65,528.44,Single-ply,SBD,M
Boys,82.1,5,Justin Simmons,Grand Saline,81.83,167.83,86.18,195.04,449.06,Single-ply,SBD,M
Boys,82.1,6,Ryan Spellman,Lindale,81.56,165.56,97.52,179.17,442.25,Single-ply,SBD,M
Boys,82.1,7,Josh Robertson,Longview Pine Tree,80.47,158.76,97.52,181.44,437.72,Single-ply,SBD,M
Boys,82.1,8,Hunter Ryan,Crandall,80.74,172.37,92.99,172.37,437.72,Single-ply,SBD,M
Boys,82.1,9,Saul Rios,Lindale,76.48,172.37,86.18,158.76,417.3,Single-ply,SBD,M
Boys,82.1,10,Clayton Hawley,Lindale,76.57,165.56,95.25,149.69,410.5,Single-ply,SBD,M
Boys,82.1,11,Derek Mayhugh,Grand Saline,82.1,165.56,88.45,154.22,408.23,Single-ply,SBD,M
Boys,89.81,12,Ben McFadden,Lindale,82.28,154.22,74.84,174.63,403.7,Single-ply,SBD,M
Boys,82.1,13,Hunter Patterson,Quitman,79.74,136.08,79.38,161.03,376.48,Single-ply,SBD,M
Boys,89.81,1,Aaron Chitwood,Van,89.81,272.16,136.08,249.48,657.71,Single-ply,SBD,M
Boys,89.81,2,James Seekford,Lindale,82.64,258.55,161.03,235.87,655.44,Single-ply,SBD,M
Boys,89.81,3,Brenden Blunt,Crandall,86.82,192.78,124.74,188.24,505.76,Single-ply,SBD,M
Boys,89.81,4,Dalton Bramhall,Crandall,88.72,188.24,111.13,181.44,480.81,Single-ply,SBD,M
Boys,89.81,5,Sterling Hauk,Longview Pine Tree,83.01,179.17,122.47,165.56,467.2,Single-ply,SBD,M
Boys,89.81,6,Jacob Ghormley,Crandall,83.37,172.37,106.59,188.24,467.2,Single-ply,SBD,M
Boys,89.81,7,Ceasar Morales,Jacksonville,87.72,174.63,92.99,183.7,451.32,Single-ply,SBD,M
Boys,89.81,8,Ameir Morris,Lindale,87.27,165.56,102.06,181.44,449.06,Single-ply,SBD,M
Boys,89.81,9,Noah Smith,Longview Pine Tree,88.36,156.49,106.59,181.44,444.52,Single-ply,SBD,M
Boys,89.81,10,Juan Garcia,Eustace,83.46,163.29,86.18,192.78,442.25,Single-ply,SBD,M
Boys,89.81,11,Zac Eskridge,Crandall,89.45,174.63,99.79,167.83,442.25,Single-ply,SBD,M
Boys,89.81,12,Michael Roch,Eustace,84.64,147.42,104.33,181.44,433.18,Single-ply,SBD,M
Boys,99.79,13,Jesse Head,Lindale,89.99,165.56,83.91,163.29,412.77,Single-ply,SBD,M
Boys,89.81,14,Chris Wood,Quitman,89.09,127.01,92.99,167.83,387.82,Single-ply,SBD,M
Boys,89.81,15,Jacob Hurst,Mineola,86.55,145.15,97.52,136.08,378.75,Single-ply,SBD,M
Boys,99.79,1,Taylor Sipes,Lindale,95.07,208.65,120.2,208.65,537.51,Single-ply,SBD,M
Boys,99.79,2,David Brown,Crandall,99.43,206.38,124.74,199.58,530.7,Single-ply,SBD,M
Boys,99.79,3,Eli Crawford,Kerens,96.43,195.04,111.13,217.72,523.9,Single-ply,SBD,M
Boys,99.79,4,Noah Bush,Athens,94.08,185.97,117.93,188.24,492.15,Single-ply,SBD,M
Boys,99.79,5,Henry Hernandez #2,Jacksonville,97.07,188.24,102.06,195.04,485.34,Single-ply,SBD,M
Boys,99.79,6,Rowdy Teaff,Quitman,95.44,167.83,120.2,183.7,471.74,Single-ply,SBD,M
Boys,99.79,7,Barrett Senyckjy,Athens,90.9,176.9,115.67,172.37,464.93,Single-ply,SBD,M
Boys,99.79,8,Brooks Lane,Crandall,92.53,163.29,117.93,172.37,453.59,Single-ply,SBD,M
Boys,99.79,9,Flavio Hernandez,Jacksonville,94.17,156.49,97.52,181.44,435.45,Single-ply,SBD,M
Boys,99.79,10,Josiah Jones,Athens,92.99,154.22,81.65,136.08,371.95,Single-ply,SBD,M
Boys,99.79,11,Colton Thedford,Van,99.06,106.59,88.45,138.35,333.39,Single-ply,SBD,M
Boys,109.77,1,Tyler Segrest,Lindale,105.41,226.8,136.08,238.14,601.01,Single-ply,SBD,M
Boys,109.77,2,Sammy Palma,Grand Saline,100.79,183.7,124.74,215.46,523.9,Single-ply,SBD,M
Boys,109.77,3,Roland Stevens,Grand Saline,107.86,213.19,113.4,195.04,521.63,Single-ply,SBD,M
Boys,109.77,4,Luke Bowden,Mineola,109.77,192.78,108.86,183.7,485.34,Single-ply,SBD,M
Boys,109.77,5,Emmitt Eckler,Jacksonville,104.96,165.56,124.74,165.56,455.86,Single-ply,SBD,M
Boys,109.77,6,Clay Gandy,Van,108.59,149.69,102.06,190.51,442.25,Single-ply,SBD,M
Boys,109.77,7,Ian Thompson,Mineola,105.23,170.1,102.06,158.76,430.91,Single-ply,SBD,M
Boys,109.77,8,Alfredo Miranda,Athens,101.15,149.69,92.99,136.08,378.75,Single-ply,SBD,M
Boys,124.74,1,Tyler Trussell,Athens,123.65,210.92,149.69,208.65,569.26,Single-ply,SBD,M
Boys,124.74,2,Chris Figueroa,Grand Saline,112.94,231.33,108.86,222.26,562.45,Single-ply,SBD,M
Boys,124.74,3,Erik Rodriquez,Overton,111.67,231.33,120.2,208.65,560.19,Single-ply,SBD,M
Boys,124.74,4,Chad Walker,Athens,116.39,204.12,142.88,208.65,555.65,Single-ply,SBD,M
Boys,124.74,5,Michael Croteau,Overton,118.84,197.31,102.06,190.51,489.88,Single-ply,SBD,M
Boys,124.74,6,Jacob Adams,Van,120.2,181.44,124.74,183.7,489.88,Single-ply,SBD,M
Boys,124.74+,7,Devon Etheridge,Van,124.92,174.63,124.74,183.7,483.08,Single-ply,SBD,M
Boys,124.74,8,Justin Crow,Jacksonville,112.58,176.9,90.72,208.65,476.27,Single-ply,SBD,M
Boys,124.74,9,Sergio Cabrera,Jacksonville,110.68,192.78,92.99,183.7,469.47,Single-ply,SBD,M
Boys,124.74,10,Justin Peek,Quitman,114.4,158.76,111.13,167.83,437.72,Single-ply,SBD,M
Boys,124.74,11,Christian Ingram,Lindale,114.03,163.29,97.52,158.76,419.57,Single-ply,SBD,M
Boys,124.74,12,Issac Sims,Quitman,124.28,145.15,88.45,172.37,405.97,Single-ply,SBD,M
Boys,124.74,13,Marcus Staggs,Eustace,116.75,154.22,99.79,149.69,403.7,Single-ply,SBD,M
Boys,124.74,14,Blake Reeves,Van,124.28,154.22,104.33,142.88,401.43,Single-ply,SBD,M
Boys,124.74,DQ,Justin Dwyer,Van,116.75,149.69,,,,Single-ply,SBD,M
Boys,124.74+,1,Brandon Brumbelow,Kerens,127.73,229.06,136.08,195.04,560.19,Single-ply,SBD,M
Boys,124.74+,2,Jaren Kubena,Jacksonville,134.08,226.8,102.06,206.38,535.24,Single-ply,SBD,M
Boys,124.74+,3,Josh West,Athens,140.43,210.92,113.4,208.65,532.97,Single-ply,SBD,M
Boys,124.74+,4,Gaylon Gradick,Lindale,143.79,195.04,115.67,188.24,498.95,Single-ply,SBD,M
Boys,124.74+,5,Mose Jeffery,Longview Pine Tree,129.46,181.44,83.91,167.83,433.18,Single-ply,SBD,M
Boys,124.74+,6,Cole Brumbelow,Kerens,141.43,158.76,86.18,167.83,412.77,Single-ply,SBD,M
Boys,124.74+,DQ,Tristan Fritch,Van,165.56,240.4,,,,Single-ply,SBD,M
